%YAML 1.1
%TAG !u! tag:unity3d.com,2011:
--- !u!1 &338250547470231523
GameObject:
  m_ObjectHideFlags: 0
  m_CorrespondingSourceObject: {fileID: 0}
  m_PrefabInstance: {fileID: 0}
  m_PrefabAsset: {fileID: 0}
  serializedVersion: 6
  m_Component:
  - component: {fileID: 338250547470231521}
  - component: {fileID: 338250547470231522}
  m_Layer: 0
  m_Name: GameManager
  m_TagString: Untagged
  m_Icon: {fileID: 0}
  m_NavMeshLayer: 0
  m_StaticEditorFlags: 0
  m_IsActive: 1
--- !u!4 &338250547470231521
Transform:
  m_ObjectHideFlags: 0
  m_CorrespondingSourceObject: {fileID: 0}
  m_PrefabInstance: {fileID: 0}
  m_PrefabAsset: {fileID: 0}
  m_GameObject: {fileID: 338250547470231523}
  m_LocalRotation: {x: 0, y: 0, z: 0, w: 1}
  m_LocalPosition: {x: 0, y: 0, z: 0}
  m_LocalScale: {x: 1, y: 1, z: 1}
  m_ConstrainProportionsScale: 0
  m_Children: []
  m_Father: {fileID: 0}
  m_RootOrder: 0
  m_LocalEulerAnglesHint: {x: 0, y: 0, z: 0}
--- !u!114 &338250547470231522
MonoBehaviour:
  m_ObjectHideFlags: 0
  m_CorrespondingSourceObject: {fileID: 0}
  m_PrefabInstance: {fileID: 0}
  m_PrefabAsset: {fileID: 0}
  m_GameObject: {fileID: 338250547470231523}
  m_Enabled: 1
  m_EditorHideFlags: 0
  m_Script: {fileID: 11500000, guid: 88c4f9c682cf6c940a6d2630272b241c, type: 3}
  m_Name: 
  m_EditorClassIdentifier: 
  playerPrefab: {fileID: 2898218451315364834, guid: 992ea75f5a0b50346843907feb66f2d5,
    type: 3}
  mapManagerPrefab: {fileID: 1169936705001098169, guid: 8c1efbfada0895f42903c4e23155b167,
    type: 3}
  cameraManagerPrefab: {fileID: 9088307945065035854, guid: 850ed745e2c7fc246ae4ba6a8f01f6b0,
    type: 3}
  audioManagerPrefab: {fileID: 1935316513626356405, guid: 796414de27d5a1648ac96634dfc45053,
    type: 3}
  postProcessManagerPrefab: {fileID: 3692143345463690825, guid: ac7c59c422e793042b715512638664a8,
    type: 3}
  uiManagerPrefab: {fileID: 6531920082956783402, guid: ec3227aa498c09c488c00003b0bbb837,
    type: 3}
  player: {fileID: 0}
  map: {fileID: 0}
  cameraManager: {fileID: 0}
  audioManager: {fileID: 0}
  postProcessManager: {fileID: 0}
  timerManager: {fileID: 0}
  uiManager: {fileID: 0}
  inputManager: {fileID: 0}
  managerFolder: {fileID: 0}
  partieDejaTerminee: 0
  onInitilizationFinish:
    m_PersistentCalls:
      m_Calls: []
  onFirstFrame:
    m_PersistentCalls:
      m_Calls: []
